projects/project1/trace.vcd
$version Generated by VerilatedVcd $end
$timescale 1ps $end
 $scope module TOP $end
  $scope module testbench $end
   $var wire 1 e clk $end
   $var wire 1 f reset $end
   $var wire 1 j trace_pc $end
   $scope module dut $end
    $var wire 1 e clk $end
    $var wire 1 f reset $end
    $var wire 32 B pc_current [31:0] $end
    $var wire 32 # pc_next [31:0] $end
    $var wire 32 $ instr [31:0] $end
    $var wire 7 % opcode [6:0] $end
    $var wire 5 & rd [4:0] $end
    $var wire 5 ' rs1 [4:0] $end
    $var wire 5 ( rs2 [4:0] $end
    $var wire 3 ) funct3 [2:0] $end
    $var wire 7 * funct7 [6:0] $end
    $var wire 1 + RegWrite $end
    $var wire 1 , MemRead $end
    $var wire 1 - MemWrite $end
    $var wire 1 . Branch $end
    $var wire 1 / Jump $end
    $var wire 2 0 ResultSel [1:0] $end
    $var wire 2 1 ALUSrc [1:0] $end
    $var wire 3 2 ImmSel [2:0] $end
    $var wire 4 3 ALUControl [3:0] $end
    $var wire 32 4 reg_read1 [31:0] $end
    $var wire 32 5 reg_read2 [31:0] $end
    $var wire 32 6 reg_write_data [31:0] $end
    $var wire 32 7 imm_value [31:0] $end
    $var wire 32 4 alu_op1 [31:0] $end
    $var wire 32 8 alu_op2 [31:0] $end
    $var wire 32 9 alu_result [31:0] $end
    $var wire 1 : alu_zero $end
    $var wire 32 g mem_read_data [31:0] $end
    $var wire 1 ; branch_taken $end
    $var wire 32 C pc_plus4 [31:0] $end
    $var wire 32 < branch_target [31:0] $end
    $var wire 32 = next_after_branch [31:0] $end
    $var wire 32 < jump_target [31:0] $end
    $scope module u_alu $end
     $var wire 32 4 op1 [31:0] $end
     $var wire 32 8 op2 [31:0] $end
     $var wire 4 3 ALUControl [3:0] $end
     $var wire 32 9 result [31:0] $end
     $var wire 1 : zero $end
    $upscope $end
    $scope module u_alu_src_mux $end
     $var wire 1 > sel $end
     $var wire 32 5 a [31:0] $end
     $var wire 32 7 b [31:0] $end
     $var wire 32 8 y [31:0] $end
    $upscope $end
    $scope module u_branch $end
     $var wire 1 . branch_en $end
     $var wire 3 ) funct3 [2:0] $end
     $var wire 32 4 rs1_val [31:0] $end
     $var wire 32 5 rs2_val [31:0] $end
     $var wire 1 ; branch_taken $end
     $var wire 1 ? cond_met $end
    $upscope $end
    $scope module u_branch_mux $end
     $var wire 1 ; sel $end
     $var wire 32 C a [31:0] $end
     $var wire 32 < b [31:0] $end
     $var wire 32 = y [31:0] $end
    $upscope $end
    $scope module u_branch_target $end
     $var wire 32 B a [31:0] $end
     $var wire 32 7 b [31:0] $end
     $var wire 32 < sum [31:0] $end
    $upscope $end
    $scope module u_ctrl $end
     $var wire 7 % opcode [6:0] $end
     $var wire 3 ) funct3 [2:0] $end
     $var wire 7 * funct7 [6:0] $end
     $var wire 1 + RegWrite $end
     $var wire 1 , MemRead $end
     $var wire 1 - MemWrite $end
     $var wire 2 0 ResultSel [1:0] $end
     $var wire 2 1 ALUSrc [1:0] $end
     $var wire 3 2 ImmSel [2:0] $end
     $var wire 4 3 ALUControl [3:0] $end
     $var wire 1 . Branch $end
     $var wire 1 / Jump $end
     $var wire 1 @ R $end
     $var wire 1 A op_0010011 $end
     $var wire 1 , lw $end
     $var wire 1 - sw $end
     $var wire 1 . B $end
     $var wire 1 / jal $end
    $upscope $end
    $scope module u_dmem $end
     $var wire 1 e clk $end
     $var wire 1 - MemWrite $end
     $var wire 1 , MemRead $end
     $var wire 32 9 addr [31:0] $end
     $var wire 32 5 write_data [31:0] $end
     $var wire 32 g read_data [31:0] $end
     $var wire 32 h i [31:0] $end
    $upscope $end
    $scope module u_imem $end
     $var wire 32 B addr [31:0] $end
     $var wire 32 $ instr [31:0] $end
     $var wire 32 i i [31:0] $end
    $upscope $end
    $scope module u_imm $end
     $var wire 32 $ instr [31:0] $end
     $var wire 3 2 ImmSel [2:0] $end
     $var wire 32 7 imm_out [31:0] $end
    $upscope $end
    $scope module u_ipsr $end
     $var wire 32 $ instr [31:0] $end
     $var wire 7 % opcode [6:0] $end
     $var wire 5 & rd [4:0] $end
     $var wire 5 ' rs1 [4:0] $end
     $var wire 5 ( rs2 [4:0] $end
     $var wire 3 ) funct3 [2:0] $end
     $var wire 7 * funct7 [6:0] $end
    $upscope $end
    $scope module u_jump_mux $end
     $var wire 1 / sel $end
     $var wire 32 = a [31:0] $end
     $var wire 32 < b [31:0] $end
     $var wire 32 # y [31:0] $end
    $upscope $end
    $scope module u_jump_target $end
     $var wire 32 B a [31:0] $end
     $var wire 32 7 b [31:0] $end
     $var wire 32 < sum [31:0] $end
    $upscope $end
    $scope module u_pc $end
     $var wire 1 e clk $end
     $var wire 1 f reset $end
     $var wire 32 # pc_in [31:0] $end
     $var wire 32 B pc_out [31:0] $end
    $upscope $end
    $scope module u_pc_plus4 $end
     $var wire 32 B a [31:0] $end
     $var wire 32 k b [31:0] $end
     $var wire 32 C sum [31:0] $end
    $upscope $end
    $scope module u_regs $end
     $var wire 1 e clk $end
     $var wire 1 f reset $end
     $var wire 1 + RegWrite $end
     $var wire 5 ' rs1 [4:0] $end
     $var wire 5 ( rs2 [4:0] $end
     $var wire 5 & rd [4:0] $end
     $var wire 32 6 write_data [31:0] $end
     $var wire 32 4 read_data1 [31:0] $end
     $var wire 32 5 read_data2 [31:0] $end
     $var wire 32 D regs[0] [31:0] $end
     $var wire 32 E regs[1] [31:0] $end
     $var wire 32 F regs[2] [31:0] $end
     $var wire 32 G regs[3] [31:0] $end
     $var wire 32 H regs[4] [31:0] $end
     $var wire 32 I regs[5] [31:0] $end
     $var wire 32 J regs[6] [31:0] $end
     $var wire 32 K regs[7] [31:0] $end
     $var wire 32 L regs[8] [31:0] $end
     $var wire 32 M regs[9] [31:0] $end
     $var wire 32 N regs[10] [31:0] $end
     $var wire 32 O regs[11] [31:0] $end
     $var wire 32 P regs[12] [31:0] $end
     $var wire 32 Q regs[13] [31:0] $end
     $var wire 32 R regs[14] [31:0] $end
     $var wire 32 S regs[15] [31:0] $end
     $var wire 32 T regs[16] [31:0] $end
     $var wire 32 U regs[17] [31:0] $end
     $var wire 32 V regs[18] [31:0] $end
     $var wire 32 W regs[19] [31:0] $end
     $var wire 32 X regs[20] [31:0] $end
     $var wire 32 Y regs[21] [31:0] $end
     $var wire 32 Z regs[22] [31:0] $end
     $var wire 32 [ regs[23] [31:0] $end
     $var wire 32 \ regs[24] [31:0] $end
     $var wire 32 ] regs[25] [31:0] $end
     $var wire 32 ^ regs[26] [31:0] $end
     $var wire 32 _ regs[27] [31:0] $end
     $var wire 32 ` regs[28] [31:0] $end
     $var wire 32 a regs[29] [31:0] $end
     $var wire 32 b regs[30] [31:0] $end
     $var wire 32 c regs[31] [31:0] $end
     $var wire 32 d i [31:0] $end
    $upscope $end
   $upscope $end
  $upscope $end
 $upscope $end
$enddefinitions $end


#0
b00000000000000000000000000000100 #
b00000000010100000000000010010011 $
b0010011 %
b00001 &
b00000 '
b00101 (
b000 )
b0000000 *
1+
0,
0-
0.
0/
b00 0
b01 1
b000 2
b0000 3
b00000000000000000000000000000000 4
b00000000000000000000000000000000 5
b00000000000000000000000000000101 6
b00000000000000000000000000000101 7
b00000000000000000000000000000101 8
b00000000000000000000000000000101 9
0:
0;
b00000000000000000000000000000101 <
b00000000000000000000000000000100 =
1>
1?
0@
1A
b00000000000000000000000000000000 B
b00000000000000000000000000000100 C
b00000000000000000000000000000000 D
b00000000000000000000000000000000 E
b00000000000000000000000000000000 F
b00000000000000000000000000000000 G
b00000000000000000000000000000000 H
b00000000000000000000000000000000 I
b00000000000000000000000000000000 J
b00000000000000000000000000000000 K
b00000000000000000000000000000000 L
b00000000000000000000000000000000 M
b00000000000000000000000000000000 N
b00000000000000000000000000000000 O
b00000000000000000000000000000000 P
b00000000000000000000000000000000 Q
b00000000000000000000000000000000 R
b00000000000000000000000000000000 S
b00000000000000000000000000000000 T
b00000000000000000000000000000000 U
b00000000000000000000000000000000 V
b00000000000000000000000000000000 W
b00000000000000000000000000000000 X
b00000000000000000000000000000000 Y
b00000000000000000000000000000000 Z
b00000000000000000000000000000000 [
b00000000000000000000000000000000 \
b00000000000000000000000000000000 ]
b00000000000000000000000000000000 ^
b00000000000000000000000000000000 _
b00000000000000000000000000000000 `
b00000000000000000000000000000000 a
b00000000000000000000000000000000 b
b00000000000000000000000000000000 c
b00000000000000000000000000000000 d
0e
1f
b00000000000000000000000000000000 g
b00000000000000000000000100000000 h
b00000000000000000000000100000000 i
0j
b00000000000000000000000000000100 k
#5
b00000000000000000000000000100000 d
1e
#10
0e
#15
b00000000000000000000000000001000 #
b00000000011100000000000100010011 $
b00010 &
b00111 (
b00000000000000000000000000000111 6
b00000000000000000000000000000111 7
b00000000000000000000000000000111 8
b00000000000000000000000000000111 9
b00000000000000000000000000001011 <
b00000000000000000000000000001000 =
b00000000000000000000000000000100 B
b00000000000000000000000000001000 C
b00000000000000000000000000000101 E
1e
0f
#20
0e
#25
b00000000000000000000000000010000 #
b00000000000100001000010001100011 $
b1100011 %
b01000 &
b00001 '
b00001 (
0+
1.
b11 0
b00 1
b010 2
b1010 3
b00000000000000000000000000000101 4
b00000000000000000000000000000101 5
b00000000000000000000000000000000 6
b00000000000000000000000000001000 7
b00000000000000000000000000000101 8
b00000000000000000000000000000000 9
1:
1;
b00000000000000000000000000010000 <
b00000000000000000000000000010000 =
0>
0A
b00000000000000000000000000001000 B
b00000000000000000000000000001100 C
b00000000000000000000000000000111 F
1e
#30
0e
#31
#35
b00000000000000000000000000010100 #
b00000000001000001000000110110011 $
b0110011 %
b00011 &
b00010 (
1+
0.
b00 0
b101 2
b0000 3
b00000000000000000000000000000111 5
b00000000000000000000000000001100 6
b00000000000000000000000000000000 7
b00000000000000000000000000000111 8
b00000000000000000000000000001100 9
0:
0;
b00000000000000000000000000010100 =
0?
1@
b00000000000000000000000000010000 B
b00000000000000000000000000010100 C
1e
#36
#40
0e
#41
#45
b00000000000000000000000000011000 #
b00000000001100000010000000100011 $
b0100011 %
b00000 &
b00000 '
b00011 (
b010 )
0+
1-
b01 1
b001 2
b00000000000000000000000000000000 4
b00000000000000000000000000001100 5
b00000000000000000000000000000000 6
b00000000000000000000000000000000 8
b00000000000000000000000000000000 9
1:
b00000000000000000000000000010100 <
b00000000000000000000000000011000 =
1>
1?
0@
b00000000000000000000000000010100 B
b00000000000000000000000000011000 C
b00000000000000000000000000001100 G
1e
#46
#50
0e
#51
#55
b00000000000000000000000000011100 #
b00000000000000000010010000000011 $
b0000011 %
b01000 &
b00000 (
1+
1,
0-
b01 0
b000 2
b00000000000000000000000000000000 5
b00000000000000000000000000001100 6
b00000000000000000000000000011000 <
b00000000000000000000000000011100 =
0?
b00000000000000000000000000011000 B
b00000000000000000000000000011100 C
1e
b00000000000000000000000000001100 g
#56
#60
0e
#61
#65
b00000000000000000000000000100000 #
b00000000000000000000000000010011 $
b0010011 %
b00000 &
b000 )
0,
b00 0
b00000000000000000000000000000000 6
b00000000000000000000000000011100 <
b00000000000000000000000000100000 =
1?
1A
b00000000000000000000000000011100 B
b00000000000000000000000000100000 C
b00000000000000000000000000001100 L
1e
b00000000000000000000000000000000 g
#66
#70
0e
#71
#75
b00000000000000000000000000100100 #
b00111110011100000000011100010011 $
b01110 &
b00111 (
b0011111 *
b00000000000000000000001111100111 6
b00000000000000000000001111100111 7
b00000000000000000000001111100111 8
b00000000000000000000001111100111 9
0:
b00000000000000000000010000000111 <
b00000000000000000000000000100100 =
b00000000000000000000000000100000 B
b00000000000000000000000000100100 C
1e
#76
#80
0e
#81
#85
b00000000000000000000000000101000 #
b00000000000000000000000000010011 $
b00000 &
b00000 (
b0000000 *
b00000000000000000000000000000000 6
b00000000000000000000000000000000 7
b00000000000000000000000000000000 8
b00000000000000000000000000000000 9
1:
b00000000000000000000000000100100 <
b00000000000000000000000000101000 =
b00000000000000000000000000100100 B
b00000000000000000000000000101000 C
b00000000000000000000001111100111 R
1e
#86
#90
0e
#95
b00000000000000000000000000101100 #
b00000000000000000000000000101000 <
b00000000000000000000000000101100 =
b00000000000000000000000000101000 B
b00000000000000000000000000101100 C
1e
#100
0e
#105
b00000000000000000000000000110000 #
b00000000000000000000000000101100 <
b00000000000000000000000000110000 =
b00000000000000000000000000101100 B
b00000000000000000000000000110000 C
1e
#110
0e
#115
b00000000000000000000000000110100 #
b00000000000000000000000000110000 <
b00000000000000000000000000110100 =
b00000000000000000000000000110000 B
b00000000000000000000000000110100 C
1e
#120
0e
#125
b00000000000000000000000000111000 #
b00000000000000000000000000110100 <
b00000000000000000000000000111000 =
b00000000000000000000000000110100 B
b00000000000000000000000000111000 C
1e
#130
0e
#135
b00000000000000000000000000000100 #
b00000110010000000000000100010011 $
b00010 &
b00100 (
b0000011 *
b00000000000000000000000001100100 6
b00000000000000000000000001100100 7
b00000000000000000000000001100100 8
b00000000000000000000000001100100 9
0:
b00000000000000000000000001100100 <
b00000000000000000000000000000100 =
b00000000000000000000000000000000 B
b00000000000000000000000000000100 C
b00000000000000000000000000000000 E
b00000000000000000000000000000000 F
b00000000000000000000000000000000 G
b00000000000000000000000000000000 L
b00000000000000000000000000000000 R
1e
1f
#140
0e
#145
1e
#150
0e
#155
b00000000000000000000000000001000 #
b00000110010000000000010000010011 $
b01000 &
b00000000000000000000000001101000 <
b00000000000000000000000000001000 =
b00000000000000000000000000000100 B
b00000000000000000000000000001000 C
b00000000000000000000000001100100 F
1e
0f
#160
0e
#165
b00000000000000000000000000001100 #
b00000000010100000000101000010011 $
b10100 &
b00101 (
b0000000 *
b00000000000000000000000000000101 6
b00000000000000000000000000000101 7
b00000000000000000000000000000101 8
b00000000000000000000000000000101 9
b00000000000000000000000000001101 <
b00000000000000000000000000001100 =
b00000000000000000000000000001000 B
b00000000000000000000000000001100 C
b00000000000000000000000001100100 L
1e
#170
0e
#171
#175
b00000000000000000000000000010000 #
b00000001010000000010000000100011 $
b0100011 %
b00000 &
b10100 (
b010 )
0+
1-
b001 2
b00000000000000000000000000000101 5
b00000000000000000000000000000000 6
b00000000000000000000000000000000 7
b00000000000000000000000000000000 8
b00000000000000000000000000000000 9
1:
b00000000000000000000000000001100 <
b00000000000000000000000000010000 =
0A
b00000000000000000000000000001100 B
b00000000000000000000000000010000 C
b00000000000000000000000000000101 X
1e
#176
#180
0e
#181
#185
b00000000000000000000000000010100 #
b11111111110000000000101000010011 $
b0010011 %
b10100 &
b11100 (
b000 )
b1111111 *
1+
0-
b000 2
b00000000000000000000000000000000 5
b11111111111111111111111111111100 6
b11111111111111111111111111111100 7
b11111111111111111111111111111100 8
b11111111111111111111111111111100 9
0:
b00000000000000000000000000010100 =
1A
b00000000000000000000000000010000 B
b00000000000000000000000000010100 C
1e
#186
#190
0e
#191
#195
b00000000000000000000000000011000 #
b00000001010000000010001000100011 $
b0100011 %
b00100 &
b10100 (
b010 )
b0000000 *
0+
1-
b001 2
b11111111111111111111111111111100 5
b00000000000000000000000000000100 6
b00000000000000000000000000000100 7
b00000000000000000000000000000100 8
b00000000000000000000000000000100 9
b00000000000000000000000000011000 <
b00000000000000000000000000011000 =
0?
0A
b00000000000000000000000000010100 B
b00000000000000000000000000011000 C
b11111111111111111111111111111100 X
1e
#196
#200
0e
#201
#205
b00000000000000000000000000011100 #
b00000000111100000000001010010011 $
b0010011 %
b00101 &
b01111 (
b000 )
1+
0-
b000 2
b00000000000000000000000000000000 5
b00000000000000000000000000001111 6
b00000000000000000000000000001111 7
b00000000000000000000000000001111 8
b00000000000000000000000000001111 9
b00000000000000000000000000100111 <
b00000000000000000000000000011100 =
1?
1A
b00000000000000000000000000011000 B
b00000000000000000000000000011100 C
1e
#206
#210
0e
#211
#215
b00000000000000000000000000100000 #
b00000001100100000000001100010011 $
b00110 &
b11001 (
b00000000000000000000000000011001 6
b00000000000000000000000000011001 7
b00000000000000000000000000011001 8
b00000000000000000000000000011001 9
b00000000000000000000000000110101 <
b00000000000000000000000000100000 =
b00000000000000000000000000011100 B
b00000000000000000000000000100000 C
b00000000000000000000000000001111 I
1e
#216
#220
0e
#221
#225
b00000000000000000000000000100100 #
b11111111100000010000000100010011 $
b00010 &
b00010 '
b11000 (
b1111111 *
b00000000000000000000000001100100 4
b00000000000000000000000001011100 6
b11111111111111111111111111111000 7
b11111111111111111111111111111000 8
b00000000000000000000000001011100 9
b00000000000000000000000000011000 <
b00000000000000000000000000100100 =
0?
b00000000000000000000000000100000 B
b00000000000000000000000000100100 C
b00000000000000000000000000011001 J
1e
#226
#230
0e
#231
#235
b00000000000000000000000000101000 #
b00000000010100010010001000100011 $
b0100011 %
b00100 &
b00101 (
b010 )
b0000000 *
0+
1-
b001 2
b00000000000000000000000001011100 4
b00000000000000000000000000001111 5
b00000000000000000000000001100000 6
b00000000000000000000000000000100 7
b00000000000000000000000000000100 8
b00000000000000000000000001100000 9
b00000000000000000000000000101000 <
b00000000000000000000000000101000 =
0A
b00000000000000000000000000100100 B
b00000000000000000000000000101000 C
b00000000000000000000000001011100 F
1e
#236
#240
0e
#241
#245
b00000000000000000000000000101100 #
b00000000011000010010000000100011 $
b00000 &
b00110 (
b00000000000000000000000000011001 5
b00000000000000000000000001011100 6
b00000000000000000000000000000000 7
b00000000000000000000000000000000 8
b00000000000000000000000001011100 9
b00000000000000000000000000101100 =
b00000000000000000000000000101000 B
b00000000000000000000000000101100 C
1e
#246
#250
0e
#251
#255
b00000000000000000000000000110000 #
b00000000000000000000010100010011 $
b0010011 %
b01010 &
b00000 '
b00000 (
b000 )
1+
0-
b000 2
b00000000000000000000000000000000 4
b00000000000000000000000000000000 5
b00000000000000000000000000000000 6
b00000000000000000000000000000000 9
1:
b00000000000000000000000000101100 <
b00000000000000000000000000110000 =
1?
1A
b00000000000000000000000000101100 B
b00000000000000000000000000110000 C
1e
#256
#260
0e
#261
#265
b00000000000000000000000000110100 #
b00000000001000000000010110010011 $
b01011 &
b00010 (
b00000000000000000000000001011100 5
b00000000000000000000000000000010 6
b00000000000000000000000000000010 7
b00000000000000000000000000000010 8
b00000000000000000000000000000010 9
0:
b00000000000000000000000000110010 <
b00000000000000000000000000110100 =
0?
b00000000000000000000000000110000 B
b00000000000000000000000000110100 C
1e
#266
#270
0e
#271
#275
b00000000000000000000000001001100 #
b00000001100000000000000011101111 $
b1101111 %
b00001 &
b11000 (
1/
b10 0
b10 1
b100 2
b1010 3
b00000000000000000000000000000000 5
b00000000000000000000000000111000 6
b00000000000000000000000000011000 7
b00000000000000000000000000000000 8
b00000000000000000000000000000000 9
1:
b00000000000000000000000001001100 <
b00000000000000000000000000111000 =
0>
1?
0A
b00000000000000000000000000110100 B
b00000000000000000000000000111000 C
b00000000000000000000000000000010 O
1e
#276
#280
0e
#281
#285
b00000000000000000000000001010000 #
b00000000000000000000001110010011 $
b0010011 %
b00111 &
b00000 (
0/
b00 0
b01 1
b000 2
b0000 3
b00000000000000000000000000000000 6
b00000000000000000000000000000000 7
b00000000000000000000000001010000 =
1>
1A
b00000000000000000000000001001100 B
b00000000000000000000000001010000 C
b00000000000000000000000000111000 E
1e
#286
#290
0e
#291
#295
b00000000000000000000000001010100 #
b00000010101100111000000001100011 $
b1100011 %
b00000 &
b00111 '
b01011 (
b0000001 *
0+
1.
b11 0
b00 1
b010 2
b1010 3
b00000000000000000000000000000010 5
b00000000000000000000000000100000 7
b00000000000000000000000000000010 8
b00000000000000000000000001110000 <
b00000000000000000000000001010100 =
0>
0?
0A
b00000000000000000000000001010000 B
b00000000000000000000000001010100 C
1e
#296
#300
0e
#301
#305
b00000000000000000000000001011000 #
b00000000000001010010111010000011 $
b0000011 %
b11101 &
b01010 '
b00000 (
b010 )
b0000000 *
1+
1,
0.
b01 0
b01 1
b000 2
b0000 3
b00000000000000000000000000000000 5
b00000000000000000000000000000101 6
b00000000000000000000000000000000 7
b00000000000000000000000000000000 8
b00000000000000000000000001010100 <
b00000000000000000000000001011000 =
1>
b00000000000000000000000001010100 B
b00000000000000000000000001011000 C
1e
b00000000000000000000000000000101 g
#306
#310
0e
#311
#315
b00000000000000000000000001011100 #
b00000000001011101001111100010011 $
b0010011 %
b11110 &
b11101 '
b00010 (
b001 )
0,
b00 0
b0101 3
b00000000000000000000000000000101 4
b00000000000000000000000001011100 5
b00000000000000000000000000010100 6
b00000000000000000000000000000010 7
b00000000000000000000000000000010 8
b00000000000000000000000000010100 9
0:
b00000000000000000000000001011010 <
b00000000000000000000000001011100 =
1?
1A
b00000000000000000000000001011000 B
b00000000000000000000000001011100 C
b00000000000000000000000000000101 a
1e
b00000000000000000000000000000000 g
#316
#320
0e
#321
#325
b00000000000000000000000001100000 #
b01000000000111110101111100010011 $
b11110 '
b00001 (
b101 )
b0100000 *
b0111 3
b00000000000000000000000000010100 4
b00000000000000000000000000111000 5
b00000000000000000000000000001010 6
b00000000000000000000010000000001 7
b00000000000000000000010000000001 8
b00000000000000000000000000001010 9
b00000000000000000000010001011101 <
b00000000000000000000000001100000 =
0?
b00000000000000000000000001011100 B
b00000000000000000000000001100000 C
b00000000000000000000000000010100 b
1e
#326
#330
0e
#331
#335
b00000000000000000000000001100100 #
b00000001111001010010000000100011 $
b0100011 %
b00000 &
b01010 '
b11110 (
b010 )
b0000000 *
0+
1-
b001 2
b0000 3
b00000000000000000000000000000000 4
b00000000000000000000000000001010 5
b00000000000000000000000000000000 6
b00000000000000000000000000000000 7
b00000000000000000000000000000000 8
b00000000000000000000000000000000 9
1:
b00000000000000000000000001100000 <
b00000000000000000000000001100100 =
1?
0A
b00000000000000000000000001100000 B
b00000000000000000000000001100100 C
b00000000000000000000000000001010 b
1e
#336
#340
0e
#341
#345
b00000000000000000000000001101000 #
b00000000010001010000010100010011 $
b0010011 %
b01010 &
b00100 (
b000 )
1+
0-
b000 2
b00000000000000000000000000000000 5
b00000000000000000000000000000100 6
b00000000000000000000000000000100 7
b00000000000000000000000000000100 8
b00000000000000000000000000000100 9
0:
b00000000000000000000000001101000 <
b00000000000000000000000001101000 =
1A
b00000000000000000000000001100100 B
b00000000000000000000000001101000 C
1e
#346
#350
0e
#351
#355
b00000000000000000000000001101100 #
b00000000000100111000001110010011 $
b00111 &
b00111 '
b00001 (
b00000000000000000000000000111000 5
b00000000000000000000000000000001 6
b00000000000000000000000000000001 7
b00000000000000000000000000000001 8
b00000000000000000000000000000001 9
b00000000000000000000000001101001 <
b00000000000000000000000001101100 =
0?
b00000000000000000000000001101000 B
b00000000000000000000000001101100 C
b00000000000000000000000000000100 N
1e
#356
#360
0e
#361
#365
b00000000000000000000000001010000 #
b11111110010111111111000001101111 $
b1101111 %
b00000 &
b11111 '
b00101 (
b111 )
b1111111 *
1/
b10 0
b10 1
b100 2
b1010 3
b00000000000000000000000000001111 5
b00000000000000000000000001110000 6
b11111111111111111111111111100100 7
b00000000000000000000000000001111 8
b00000000000000000000000000000000 9
1:
b00000000000000000000000001010000 <
b00000000000000000000000001110000 =
0>
0A
b00000000000000000000000001101100 B
b00000000000000000000000001110000 C
b00000000000000000000000000000001 K
1e
#366
#370
0e
#371
#375
b00000000000000000000000001010100 #
b00000010101100111000000001100011 $
b1100011 %
b00111 '
b01011 (
b000 )
b0000001 *
0+
1.
0/
b11 0
b00 1
b010 2
b00000000000000000000000000000001 4
b00000000000000000000000000000010 5
b00000000000000000000000000000000 6
b00000000000000000000000000100000 7
b00000000000000000000000000000010 8
b00000000000000000000000001110000 <
b00000000000000000000000001010100 =
b00000000000000000000000001010000 B
b00000000000000000000000001010100 C
b00000000000000000000000001110000 D
1e
#376
#380
0e
#381
#385
b00000000000000000000000001011000 #
b00000000000001010010111010000011 $
b0000011 %
b11101 &
b01010 '
b00000 (
b010 )
b0000000 *
1+
1,
0.
b01 0
b01 1
b000 2
b0000 3
b00000000000000000000000000000100 4
b00000000000000000000000000000000 5
b11111111111111111111111111111100 6
b00000000000000000000000000000000 7
b00000000000000000000000000000000 8
b00000000000000000000000000000100 9
0:
b00000000000000000000000001010100 <
b00000000000000000000000001011000 =
1>
b00000000000000000000000001010100 B
b00000000000000000000000001011000 C
1e
b11111111111111111111111111111100 g
#386
#390
0e
#391
#395
b00000000000000000000000001011100 #
b00000000001011101001111100010011 $
b0010011 %
b11110 &
b11101 '
b00010 (
b001 )
0,
b00 0
b0101 3
b11111111111111111111111111111100 4
b00000000000000000000000001011100 5
b11111111111111111111111111110000 6
b00000000000000000000000000000010 7
b00000000000000000000000000000010 8
b11111111111111111111111111110000 9
b00000000000000000000000001011010 <
b00000000000000000000000001011100 =
1?
1A
b00000000000000000000000001011000 B
b00000000000000000000000001011100 C
b11111111111111111111111111111100 a
1e
b00000000000000000000000000000000 g
#396
#400
0e
#401
#405
b00000000000000000000000001100000 #
b01000000000111110101111100010011 $
b11110 '
b00001 (
b101 )
b0100000 *
b0111 3
b11111111111111111111111111110000 4
b00000000000000000000000000111000 5
b11111111111111111111111111111000 6
b00000000000000000000010000000001 7
b00000000000000000000010000000001 8
b11111111111111111111111111111000 9
b00000000000000000000010001011101 <
b00000000000000000000000001100000 =
0?
b00000000000000000000000001011100 B
b00000000000000000000000001100000 C
b11111111111111111111111111110000 b
1e
#406
#410
0e
#411
#415
b00000000000000000000000001100100 #
b00000001111001010010000000100011 $
b0100011 %
b00000 &
b01010 '
b11110 (
b010 )
b0000000 *
0+
1-
b001 2
b0000 3
b00000000000000000000000000000100 4
b11111111111111111111111111111000 5
b00000000000000000000000000000100 6
b00000000000000000000000000000000 7
b00000000000000000000000000000000 8
b00000000000000000000000000000100 9
b00000000000000000000000001100000 <
b00000000000000000000000001100100 =
0A
b00000000000000000000000001100000 B
b00000000000000000000000001100100 C
b11111111111111111111111111111000 b
1e
#416
#420
0e
#421
#425
b00000000000000000000000001101000 #
b00000000010001010000010100010011 $
b0010011 %
b01010 &
b00100 (
b000 )
1+
0-
b000 2
b00000000000000000000000000000000 5
b00000000000000000000000000001000 6
b00000000000000000000000000000100 7
b00000000000000000000000000000100 8
b00000000000000000000000000001000 9
b00000000000000000000000001101000 <
b00000000000000000000000001101000 =
1A
b00000000000000000000000001100100 B
b00000000000000000000000001101000 C
1e
#426
#430
0e
#431
#435
b00000000000000000000000001101100 #
b00000000000100111000001110010011 $
b00111 &
b00111 '
b00001 (
b00000000000000000000000000000001 4
b00000000000000000000000000111000 5
b00000000000000000000000000000010 6
b00000000000000000000000000000001 7
b00000000000000000000000000000001 8
b00000000000000000000000000000010 9
b00000000000000000000000001101001 <
b00000000000000000000000001101100 =
b00000000000000000000000001101000 B
b00000000000000000000000001101100 C
b00000000000000000000000000001000 N
1e
#436
#440
0e
#441
#445
b00000000000000000000000001010000 #
b11111110010111111111000001101111 $
b1101111 %
b00000 &
b11111 '
b00101 (
b111 )
b1111111 *
1/
b10 0
b10 1
b100 2
b1010 3
b00000000000000000000000000000000 4
b00000000000000000000000000001111 5
b00000000000000000000000001110000 6
b11111111111111111111111111100100 7
b00000000000000000000000000001111 8
b00000000000000000000000000000000 9
1:
b00000000000000000000000001010000 <
b00000000000000000000000001110000 =
0>
0A
b00000000000000000000000001101100 B
b00000000000000000000000001110000 C
b00000000000000000000000000000010 K
1e
#446
#450
0e
#451
#455
b00000000000000000000000001110000 #
b00000010101100111000000001100011 $
b1100011 %
b00111 '
b01011 (
b000 )
b0000001 *
0+
1.
0/
b11 0
b00 1
b010 2
b00000000000000000000000000000010 4
b00000000000000000000000000000010 5
b00000000000000000000000000000000 6
b00000000000000000000000000100000 7
b00000000000000000000000000000010 8
1;
b00000000000000000000000001110000 <
1?
b00000000000000000000000001010000 B
b00000000000000000000000001010100 C
1e
#456
#460
0e
#461
#465
b00000000000000000000000001110100 #
b00000110001100000000010100010011 $
b0010011 %
b01010 &
b00000 '
b00011 (
b0000011 *
1+
0.
b00 0
b01 1
b000 2
b0000 3
b00000000000000000000000000000000 4
b00000000000000000000000000000000 5
b00000000000000000000000001100011 6
b00000000000000000000000001100011 7
b00000000000000000000000001100011 8
b00000000000000000000000001100011 9
0:
0;
b00000000000000000000000011010011 <
b00000000000000000000000001110100 =
1>
1A
b00000000000000000000000001110000 B
b00000000000000000000000001110100 C
1e
#466
#470
0e
#471
#475
b00000000000000000000000000111000 #
b11111100010111111111000001101111 $
b1101111 %
b00000 &
b11111 '
b00101 (
b111 )
b1111110 *
1/
b10 0
b10 1
b100 2
b1010 3
b00000000000000000000000000001111 5
b00000000000000000000000001111000 6
b11111111111111111111111111000100 7
b00000000000000000000000000001111 8
b00000000000000000000000000000000 9
1:
b00000000000000000000000000111000 <
b00000000000000000000000001111000 =
0>
0?
0A
b00000000000000000000000001110100 B
b00000000000000000000000001111000 C
b00000000000000000000000001100011 N
1e
#476
#480
0e
#481
#485
b00000000000000000000000000111100 #
b00000000000000010010001100000011 $
b0000011 %
b00110 &
b00010 '
b00000 (
b010 )
b0000000 *
1,
0/
b01 0
b01 1
b000 2
b0000 3
b00000000000000000000000001011100 4
b00000000000000000000000000000000 5
b00000000000000000000000000011001 6
b00000000000000000000000000000000 7
b00000000000000000000000000000000 8
b00000000000000000000000001011100 9
0:
b00000000000000000000000000111100 =
1>
b00000000000000000000000000111000 B
b00000000000000000000000000111100 C
b00000000000000000000000001111000 D
1e
b00000000000000000000000000011001 g
#486
#490
0e
#491
#495
b00000000000000000000000001000000 #
b00000000010000010010001010000011 $
b00101 &
b00100 (
b00000000000000000000000000001111 6
b00000000000000000000000000000100 7
b00000000000000000000000000000100 8
b00000000000000000000000001100000 9
b00000000000000000000000001000000 <
b00000000000000000000000001000000 =
b00000000000000000000000000111100 B
b00000000000000000000000001000000 C
1e
b00000000000000000000000000001111 g
#496
#500
0e
#501
