labs/w06/log/write_reuse.log
./obj_dir/Vtb_cache_lab +PROGRAM=programs/program_write_reuse.hex +DATA=programs/data_init.hex
Loading program: programs/program_write_reuse.hex
Loading data image: programs/data_init.hex
cycle=1 pc=00000000 instr=04000093 accesses=0 hits=0 misses=0
cycle=2 pc=00000004 instr=04000093 accesses=0 hits=0 misses=0
cycle=3 pc=00000004 instr=00500113 accesses=0 hits=0 misses=0
cycle=4 pc=00000008 instr=00500113 accesses=0 hits=0 misses=0
cycle=5 pc=00000008 instr=0020a023 accesses=0 hits=0 misses=0
cycle=6 pc=00000008 instr=0020a023 accesses=0 hits=0 misses=0
cycle=7 pc=00000008 instr=0020a023 accesses=1 hits=0 misses=1
cycle=8 pc=00000008 instr=0020a023 accesses=1 hits=0 misses=1
cycle=9 pc=00000008 instr=0020a023 accesses=1 hits=0 misses=1
cycle=10 pc=00000008 instr=0020a023 accesses=1 hits=0 misses=1
cycle=11 pc=00000008 instr=0020a023 accesses=1 hits=0 misses=1
cycle=12 pc=00000008 instr=0020a023 accesses=1 hits=0 misses=1
cycle=13 pc=00000008 instr=0020a023 accesses=1 hits=0 misses=1
cycle=14 pc=00000008 instr=0020a023 accesses=1 hits=0 misses=1
cycle=15 pc=00000008 instr=0020a023 accesses=1 hits=0 misses=1
cycle=16 pc=00000008 instr=0020a023 accesses=1 hits=0 misses=1
cycle=17 pc=00000008 instr=0020a023 accesses=1 hits=0 misses=1
cycle=18 pc=00000008 instr=0020a023 accesses=1 hits=0 misses=1
cycle=19 pc=00000008 instr=0020a023 accesses=1 hits=0 misses=1
cycle=20 pc=00000008 instr=0020a023 accesses=1 hits=0 misses=1
cycle=21 pc=00000008 instr=0020a023 accesses=1 hits=0 misses=1
cycle=22 pc=00000008 instr=0020a023 accesses=1 hits=0 misses=1
cycle=23 pc=0000000c instr=0020a023 accesses=2 hits=1 misses=1
cycle=24 pc=0000000c instr=0000a183 accesses=2 hits=1 misses=1
cycle=25 pc=0000000c instr=0000a183 accesses=2 hits=1 misses=1
cycle=26 pc=0000000c instr=0000a183 accesses=2 hits=1 misses=1
cycle=27 pc=0000000c instr=0000a183 accesses=2 hits=1 misses=1
cycle=28 pc=0000000c instr=0000a183 accesses=2 hits=1 misses=1
cycle=29 pc=00000010 instr=0000a183 accesses=3 hits=2 misses=1
cycle=30 pc=00000010 instr=0020a223 accesses=3 hits=2 misses=1
 ==== Final Lab Stats ====
Total cycles           : 46
Retired instructions   : 6
Memory accesses        : 6
Reads                  : 2
Writes                 : 4
Cache hits             : 5
Cache misses           : 1
Hit rate               : 0.833333
Approx CPI             : 7.666667
 Register highlights: x1=64 x2=5 x3=0 x4=5 x5=0 x6=0 x7=0
Data[0]=100 Data[8]=102 Data[32]=200 Data[64]=5
- rtl/tb_cache_lab.sv:74: Verilog $finish
