projects/project4/project4.vcd
$version Generated by VerilatedVcd $end
$timescale 1ps $end
 $scope module TOP $end
  $scope module tb_project4 $end
   $var wire 1 } clk $end
   $var wire 1 ~ reset $end
   $var wire 1 # halted $end
   $var wire 32 !! cycle [31:0] $end
   $scope module dut $end
    $var wire 1 } clk $end
    $var wire 1 ~ reset $end
    $var wire 1 # halted $end
    $var wire 32 $ imem_addr [31:0] $end
    $var wire 32 % imem_rdata [31:0] $end
    $var wire 1 & dmem_valid $end
    $var wire 1 ' dmem_write $end
    $var wire 32 ( dmem_addr [31:0] $end
    $var wire 32 ) dmem_wdata [31:0] $end
    $var wire 32 "! dmem_rdata [31:0] $end
    $var wire 1 * ram_valid $end
    $var wire 1 ' ram_write $end
    $var wire 32 ( ram_addr [31:0] $end
    $var wire 32 ) ram_wdata [31:0] $end
    $var wire 32 #! ram_rdata [31:0] $end
    $var wire 1 + accel_valid $end
    $var wire 1 ' accel_write $end
    $var wire 8 , accel_addr [7:0] $end
    $var wire 32 ) accel_wdata [31:0] $end
    $var wire 32 - accel_rdata [31:0] $end
    $scope module accel $end
     $var wire 1 } clk $end
     $var wire 1 ~ reset $end
     $var wire 1 + valid $end
     $var wire 1 ' write $end
     $var wire 8 , addr [7:0] $end
     $var wire 32 ) wdata [31:0] $end
     $var wire 32 - rdata [31:0] $end
     $var wire 8 &! CTRL_OFFSET [7:0] $end
     $var wire 8 '! STATUS_OFFSET [7:0] $end
     $var wire 8 (! RESULT_OFFSET [7:0] $end
     $var wire 8 )! PIXEL_BASE [7:0] $end
     $var wire 8 *! KERNEL_BASE [7:0] $end
     $var wire 32 +! DIM [31:0] $end
     $var wire 32 ,! PRECISION [31:0] $end
     $var wire 32 . ctrl [31:0] $end
     $var wire 6 / offset [5:0] $end
     $var wire 2 0 row [1:0] $end
     $var wire 2 1 col [1:0] $end
     $var wire 8 2 pixels[0][0] [7:0] $end
     $var wire 8 3 pixels[0][1] [7:0] $end
     $var wire 8 4 pixels[0][2] [7:0] $end
     $var wire 8 5 pixels[1][0] [7:0] $end
     $var wire 8 6 pixels[1][1] [7:0] $end
     $var wire 8 7 pixels[1][2] [7:0] $end
     $var wire 8 8 pixels[2][0] [7:0] $end
     $var wire 8 9 pixels[2][1] [7:0] $end
     $var wire 8 : pixels[2][2] [7:0] $end
     $var wire 8 ; coefficients[0][0] [7:0] $end
     $var wire 8 < coefficients[0][1] [7:0] $end
     $var wire 8 = coefficients[0][2] [7:0] $end
     $var wire 8 > coefficients[1][0] [7:0] $end
     $var wire 8 ? coefficients[1][1] [7:0] $end
     $var wire 8 @ coefficients[1][2] [7:0] $end
     $var wire 8 A coefficients[2][0] [7:0] $end
     $var wire 8 B coefficients[2][1] [7:0] $end
     $var wire 8 C coefficients[2][2] [7:0] $end
     $var wire 32 D result_comb [31:0] $end
     $var wire 32 E result [31:0] $end
     $var wire 32 F status [31:0] $end
     $var wire 32 G latency [31:0] $end
     $var wire 32 H i [31:0] $end
     $var wire 32 I j [31:0] $end
     $var wire 32 -! k [31:0] $end
     $var wire 32 -! l [31:0] $end
     $var wire 2 J state [1:0] $end
     $var wire 2 K n_state [1:0] $end
    $upscope $end
    $scope module core $end
     $var wire 1 } clk $end
     $var wire 1 ~ reset $end
     $var wire 32 $ imem_addr [31:0] $end
     $var wire 32 % imem_rdata [31:0] $end
     $var wire 1 & dmem_valid $end
     $var wire 1 ' dmem_write $end
     $var wire 32 ( dmem_addr [31:0] $end
     $var wire 32 ) dmem_wdata [31:0] $end
     $var wire 32 "! dmem_rdata [31:0] $end
     $var wire 1 # halted $end
     $var wire 32 $ pc [31:0] $end
     $var wire 32 L regs[0] [31:0] $end
     $var wire 32 M regs[1] [31:0] $end
     $var wire 32 N regs[2] [31:0] $end
     $var wire 32 O regs[3] [31:0] $end
     $var wire 32 P regs[4] [31:0] $end
     $var wire 32 Q regs[5] [31:0] $end
     $var wire 32 R regs[6] [31:0] $end
     $var wire 32 S regs[7] [31:0] $end
     $var wire 32 T regs[8] [31:0] $end
     $var wire 32 U regs[9] [31:0] $end
     $var wire 32 V regs[10] [31:0] $end
     $var wire 32 W regs[11] [31:0] $end
     $var wire 32 X regs[12] [31:0] $end
     $var wire 32 Y regs[13] [31:0] $end
     $var wire 32 Z regs[14] [31:0] $end
     $var wire 32 [ regs[15] [31:0] $end
     $var wire 32 \ regs[16] [31:0] $end
     $var wire 32 ] regs[17] [31:0] $end
     $var wire 32 ^ regs[18] [31:0] $end
     $var wire 32 _ regs[19] [31:0] $end
     $var wire 32 ` regs[20] [31:0] $end
     $var wire 32 a regs[21] [31:0] $end
     $var wire 32 b regs[22] [31:0] $end
     $var wire 32 c regs[23] [31:0] $end
     $var wire 32 d regs[24] [31:0] $end
     $var wire 32 e regs[25] [31:0] $end
     $var wire 32 f regs[26] [31:0] $end
     $var wire 32 g regs[27] [31:0] $end
     $var wire 32 h regs[28] [31:0] $end
     $var wire 32 i regs[29] [31:0] $end
     $var wire 32 j regs[30] [31:0] $end
     $var wire 32 k regs[31] [31:0] $end
     $var wire 32 % instr [31:0] $end
     $var wire 7 l opcode [6:0] $end
     $var wire 5 m rd [4:0] $end
     $var wire 3 n funct3 [2:0] $end
     $var wire 5 o rs1 [4:0] $end
     $var wire 5 p rs2 [4:0] $end
     $var wire 7 q funct7 [6:0] $end
     $var wire 32 r imm_i [31:0] $end
     $var wire 32 s imm_s [31:0] $end
     $var wire 32 t imm_b [31:0] $end
     $var wire 32 u imm_u [31:0] $end
     $var wire 32 v rs1_val [31:0] $end
     $var wire 32 w rs2_val [31:0] $end
     $var wire 32 x next_pc [31:0] $end
     $var wire 32 y wb_data [31:0] $end
     $var wire 1 z reg_write $end
     $var wire 32 { i [31:0] $end
    $upscope $end
    $scope module data_memory $end
     $var wire 32 .! WORDS [31:0] $end
     $var wire 1 } clk $end
     $var wire 1 * valid $end
     $var wire 1 ' write $end
     $var wire 32 ( addr [31:0] $end
     $var wire 32 ) wdata [31:0] $end
     $var wire 32 #! rdata [31:0] $end
     $var wire 32 $! i [31:0] $end
    $upscope $end
    $scope module decoder $end
     $var wire 1 & valid $end
     $var wire 1 ' write $end
     $var wire 32 ( addr [31:0] $end
     $var wire 32 ) wdata [31:0] $end
     $var wire 32 "! rdata [31:0] $end
     $var wire 1 * ram_valid $end
     $var wire 1 ' ram_write $end
     $var wire 32 ( ram_addr [31:0] $end
     $var wire 32 ) ram_wdata [31:0] $end
     $var wire 32 #! ram_rdata [31:0] $end
     $var wire 1 + accel_valid $end
     $var wire 1 ' accel_write $end
     $var wire 8 , accel_addr [7:0] $end
     $var wire 32 ) accel_wdata [31:0] $end
     $var wire 32 - accel_rdata [31:0] $end
     $var wire 1 | is_accel $end
    $upscope $end
    $scope module imem $end
     $var wire 32 .! WORDS [31:0] $end
     $var wire 160 /! INIT_FILE [159:0] $end
     $var wire 32 $ addr [31:0] $end
     $var wire 32 % rdata [31:0] $end
     $var wire 32 %! i [31:0] $end
    $upscope $end
   $upscope $end
  $upscope $end
 $upscope $end
$enddefinitions $end


#0
0#
b00000000000000000000000000000000 $
b10000000000000000000010100110111 %
0&
0'
b00000000000000000000000000000000 (
b00000000000000000000000000000000 )
0*
0+
b00000000 ,
b00000000000000000000000000000000 -
b00000000000000000000000000000000 .
b000000 /
b00 0
b00 1
b00000000 2
b00000000 3
b00000000 4
b00000000 5
b00000000 6
b00000000 7
b00000000 8
b00000000 9
b00000000 :
b00000000 ;
b00000000 <
b00000000 =
b00000000 >
b00000000 ?
b00000000 @
b00000000 A
b00000000 B
b00000000 C
b00000000000000000000000000000000 D
b00000000000000000000000000000000 E
b00000000000000000000000000000000 F
b00000000000000000000000000000000 G
b00000000000000000000000000000000 H
b00000000000000000000000000000000 I
b00 J
b00 K
b00000000000000000000000000000000 L
b00000000000000000000000000000000 M
b00000000000000000000000000000000 N
b00000000000000000000000000000000 O
b00000000000000000000000000000000 P
b00000000000000000000000000000000 Q
b00000000000000000000000000000000 R
b00000000000000000000000000000000 S
b00000000000000000000000000000000 T
b00000000000000000000000000000000 U
b00000000000000000000000000000000 V
b00000000000000000000000000000000 W
b00000000000000000000000000000000 X
b00000000000000000000000000000000 Y
b00000000000000000000000000000000 Z
b00000000000000000000000000000000 [
b00000000000000000000000000000000 \
b00000000000000000000000000000000 ]
b00000000000000000000000000000000 ^
b00000000000000000000000000000000 _
b00000000000000000000000000000000 `
b00000000000000000000000000000000 a
b00000000000000000000000000000000 b
b00000000000000000000000000000000 c
b00000000000000000000000000000000 d
b00000000000000000000000000000000 e
b00000000000000000000000000000000 f
b00000000000000000000000000000000 g
b00000000000000000000000000000000 h
b00000000000000000000000000000000 i
b00000000000000000000000000000000 j
b00000000000000000000000000000000 k
b0110111 l
b01010 m
b000 n
b00000 o
b00000 p
b1000000 q
b11111111111111111111100000000000 r
b11111111111111111111100000001010 s
b11111111111111111111000000001010 t
b10000000000000000000000000000000 u
b00000000000000000000000000000000 v
b00000000000000000000000000000000 w
b00000000000000000000000000000100 x
b10000000000000000000000000000000 y
1z
b00000000000000000000000000000000 {
0|
0}
1~
b00000000000000000000000000000000 !!
b00000000000000000000000000000000 "!
b00000000000000000000000000000000 #!
b00000000000000000000000100000000 $!
b00000000000000000000000100000000 %!
b00000000 &!
b00000100 '!
b00001000 (!
b00010000 )!
b01000000 *!
b00000000000000000000000000000011 +!
b00000000000000000000000000001000 ,!
b00000000000000000000000000000011 -!
b00000000000000000000000100000000 .!
b0111001001110100011011000010111101110000011100100110111101100111011100100110000101101101010111110110001101101111011011100111011000101110011010000110010101111000 /!
#5
b00000000000000000000000000000011 H
b00000000000000000000000000000011 I
b00000000000000000000000000100000 {
1}
#10
0}
#15
1}
#20
0}
#25
1}
#30
0}
#35
b00000000000000000000000000000100 $
b00000000000100000000010110010011 %
b10000000000000000000000000000000 V
b0010011 l
b01011 m
b00001 p
b0000000 q
b00000000000000000000000000000001 r
b00000000000000000000000000001011 s
b00000000000000000000100000001010 t
b00000000000100000000000000000000 u
b00000000000000000000000000001000 x
b00000000000000000000000000000001 y
1}
0~
#40
0}
#45
b00000000000000000000000000001000 $
b00000000000100000000000010010011 %
b00000000000000000000000000000001 W
b00001 m
b00000000000000000000000000000001 s
b00000000000000000000100000000000 t
b00000000000000000000000000001100 x
1}
b00000000000000000000000000000001 !!
#50
0}
#55
b00000000000000000000000000001100 $
b00000000000101010010100000100011 %
1&
1'
b10000000000000000000000000010000 (
b00000000000000000000000000000001 )
1+
b00010000 ,
b00000000000000000000000000000001 M
b0100011 l
b10000 m
b010 n
b01010 o
b00000000000000000000000000010000 s
b00000000000000000000000000010000 t
b00000000000101010010000000000000 u
b10000000000000000000000000000000 v
b00000000000000000000000000000001 w
b00000000000000000000000000010000 x
b00000000000000000000000000000000 y
0z
1|
1}
b00000000000000000000000000000010 !!
#60
0}
#65
b00000000000000000000000000010000 $
b00000000001000000000000010010011 %
0&
0'
b00000000000000000000000000000000 (
b00000000000000000000000000000000 )
0+
b00000000 ,
b00000001 2
b0010011 l
b00001 m
b000 n
b00000 o
b00010 p
b00000000000000000000000000000010 r
b00000000000000000000000000000001 s
b00000000000000000000100000000000 t
b00000000001000000000000000000000 u
b00000000000000000000000000000000 v
b00000000000000000000000000000000 w
b00000000000000000000000000010100 x
b00000000000000000000000000000010 y
1z
0|
1}
b00000000000000000000000000000011 !!
#70
0}
#75
b00000000000000000000000000010100 $
b00000000000101010010101000100011 %
1&
1'
b10000000000000000000000000010100 (
b00000000000000000000000000000010 )
1+
b00010100 ,
b000100 /
b01 1
b00000000000000000000000000000010 M
b0100011 l
b10100 m
b010 n
b01010 o
b00001 p
b00000000000000000000000000000001 r
b00000000000000000000000000010100 s
b00000000000000000000000000010100 t
b00000000000101010010000000000000 u
b10000000000000000000000000000000 v
b00000000000000000000000000000010 w
b00000000000000000000000000011000 x
b00000000000000000000000000000000 y
0z
1|
1}
b00000000000000000000000000000100 !!
#80
0}
#85
b00000000000000000000000000011000 $
b00000000001100000000000010010011 %
0&
0'
b00000000000000000000000000000000 (
b00000000000000000000000000000000 )
0+
b00000000 ,
b000000 /
b00 1
b00000010 3
b0010011 l
b00001 m
b000 n
b00000 o
b00011 p
b00000000000000000000000000000011 r
b00000000000000000000000000000001 s
b00000000000000000000100000000000 t
b00000000001100000000000000000000 u
b00000000000000000000000000000000 v
b00000000000000000000000000000000 w
b00000000000000000000000000011100 x
b00000000000000000000000000000011 y
1z
0|
1}
b00000000000000000000000000000101 !!
#90
0}
#95
b00000000000000000000000000011100 $
b00000000000101010010110000100011 %
1&
1'
b10000000000000000000000000011000 (
b00000000000000000000000000000011 )
1+
b00011000 ,
b001000 /
b10 1
b00000000000000000000000000000011 M
b0100011 l
b11000 m
b010 n
b01010 o
b00001 p
b00000000000000000000000000000001 r
b00000000000000000000000000011000 s
b00000000000000000000000000011000 t
b00000000000101010010000000000000 u
b10000000000000000000000000000000 v
b00000000000000000000000000000011 w
b00000000000000000000000000100000 x
b00000000000000000000000000000000 y
0z
1|
1}
b00000000000000000000000000000110 !!
#100
0}
#105
b00000000000000000000000000100000 $
b00000000010000000000000010010011 %
0&
0'
b00000000000000000000000000000000 (
b00000000000000000000000000000000 )
0+
b00000000 ,
b000000 /
b00 1
b00000011 4
b0010011 l
b00001 m
b000 n
b00000 o
b00100 p
b00000000000000000000000000000100 r
b00000000000000000000000000000001 s
b00000000000000000000100000000000 t
b00000000010000000000000000000000 u
b00000000000000000000000000000000 v
b00000000000000000000000000000000 w
b00000000000000000000000000100100 x
b00000000000000000000000000000100 y
1z
0|
1}
b00000000000000000000000000000111 !!
#110
0}
#115
b00000000000000000000000000100100 $
b00000000000101010010111000100011 %
1&
1'
b10000000000000000000000000011100 (
b00000000000000000000000000000100 )
1+
b00011100 ,
b001100 /
b01 0
b00000000000000000000000000000100 M
b0100011 l
b11100 m
b010 n
b01010 o
b00001 p
b00000000000000000000000000000001 r
b00000000000000000000000000011100 s
b00000000000000000000000000011100 t
b00000000000101010010000000000000 u
b10000000000000000000000000000000 v
b00000000000000000000000000000100 w
b00000000000000000000000000101000 x
b00000000000000000000000000000000 y
0z
1|
1}
b00000000000000000000000000001000 !!
#120
0}
#125
b00000000000000000000000000101000 $
b00000000010100000000000010010011 %
0&
0'
b00000000000000000000000000000000 (
b00000000000000000000000000000000 )
0+
b00000000 ,
b000000 /
b00 0
b00000100 5
b0010011 l
b00001 m
b000 n
b00000 o
b00101 p
b00000000000000000000000000000101 r
b00000000000000000000000000000001 s
b00000000000000000000100000000000 t
b00000000010100000000000000000000 u
b00000000000000000000000000000000 v
b00000000000000000000000000000000 w
b00000000000000000000000000101100 x
b00000000000000000000000000000101 y
1z
0|
1}
b00000000000000000000000000001001 !!
#130
0}
#135
b00000000000000000000000000101100 $
b00000010000101010010000000100011 %
1&
1'
b10000000000000000000000000100000 (
b00000000000000000000000000000101 )
1+
b00100000 ,
b010000 /
b01 0
b01 1
b00000000000000000000000000000101 M
b0100011 l
b00000 m
b010 n
b01010 o
b00001 p
b0000001 q
b00000000000000000000000000100001 r
b00000000000000000000000000100000 s
b00000000000000000000000000100000 t
b00000010000101010010000000000000 u
b10000000000000000000000000000000 v
b00000000000000000000000000000101 w
b00000000000000000000000000110000 x
b00000000000000000000000000000000 y
0z
1|
1}
b00000000000000000000000000001010 !!
#140
0}
#145
b00000000000000000000000000110000 $
b00000000011000000000000010010011 %
0&
0'
b00000000000000000000000000000000 (
b00000000000000000000000000000000 )
0+
b00000000 ,
b000000 /
b00 0
b00 1
b00000101 6
b0010011 l
b00001 m
b000 n
b00000 o
b00110 p
b0000000 q
b00000000000000000000000000000110 r
b00000000000000000000000000000001 s
b00000000000000000000100000000000 t
b00000000011000000000000000000000 u
b00000000000000000000000000000000 v
b00000000000000000000000000000000 w
b00000000000000000000000000110100 x
b00000000000000000000000000000110 y
1z
0|
1}
b00000000000000000000000000001011 !!
#150
0}
#155
b00000000000000000000000000110100 $
b00000010000101010010001000100011 %
1&
1'
b10000000000000000000000000100100 (
b00000000000000000000000000000110 )
1+
b00100100 ,
b010100 /
b01 0
b10 1
b00000000000000000000000000000110 M
b0100011 l
b00100 m
b010 n
b01010 o
b00001 p
b0000001 q
b00000000000000000000000000100001 r
b00000000000000000000000000100100 s
b00000000000000000000000000100100 t
b00000010000101010010000000000000 u
b10000000000000000000000000000000 v
b00000000000000000000000000000110 w
b00000000000000000000000000111000 x
b00000000000000000000000000000000 y
0z
1|
1}
b00000000000000000000000000001100 !!
#160
0}
#165
b00000000000000000000000000111000 $
b00000000011100000000000010010011 %
0&
0'
b00000000000000000000000000000000 (
b00000000000000000000000000000000 )
0+
b00000000 ,
b000000 /
b00 0
b00 1
b00000110 7
b0010011 l
b00001 m
b000 n
b00000 o
b00111 p
b0000000 q
b00000000000000000000000000000111 r
b00000000000000000000000000000001 s
b00000000000000000000100000000000 t
b00000000011100000000000000000000 u
b00000000000000000000000000000000 v
b00000000000000000000000000000000 w
b00000000000000000000000000111100 x
b00000000000000000000000000000111 y
1z
0|
1}
b00000000000000000000000000001101 !!
#170
0}
#175
b00000000000000000000000000111100 $
b00000010000101010010010000100011 %
1&
1'
b10000000000000000000000000101000 (
b00000000000000000000000000000111 )
1+
b00101000 ,
b011000 /
b10 0
b00000000000000000000000000000111 M
b0100011 l
b01000 m
b010 n
b01010 o
b00001 p
b0000001 q
b00000000000000000000000000100001 r
b00000000000000000000000000101000 s
b00000000000000000000000000101000 t
b00000010000101010010000000000000 u
b10000000000000000000000000000000 v
b00000000000000000000000000000111 w
b00000000000000000000000001000000 x
b00000000000000000000000000000000 y
0z
1|
1}
b00000000000000000000000000001110 !!
#180
0}
#185
b00000000000000000000000001000000 $
b00000000100000000000000010010011 %
0&
0'
b00000000000000000000000000000000 (
b00000000000000000000000000000000 )
0+
b00000000 ,
b000000 /
b00 0
b00000111 8
b0010011 l
b00001 m
b000 n
b00000 o
b01000 p
b0000000 q
b00000000000000000000000000001000 r
b00000000000000000000000000000001 s
b00000000000000000000100000000000 t
b00000000100000000000000000000000 u
b00000000000000000000000000000000 v
b00000000000000000000000000000000 w
b00000000000000000000000001000100 x
b00000000000000000000000000001000 y
1z
0|
1}
b00000000000000000000000000001111 !!
#190
0}
#195
b00000000000000000000000001000100 $
b00000010000101010010011000100011 %
1&
1'
b10000000000000000000000000101100 (
b00000000000000000000000000001000 )
1+
b00101100 ,
b011100 /
b10 0
b01 1
b00000000000000000000000000001000 M
b0100011 l
b01100 m
b010 n
b01010 o
b00001 p
b0000001 q
b00000000000000000000000000100001 r
b00000000000000000000000000101100 s
b00000000000000000000000000101100 t
b00000010000101010010000000000000 u
b10000000000000000000000000000000 v
b00000000000000000000000000001000 w
b00000000000000000000000001001000 x
b00000000000000000000000000000000 y
0z
1|
1}
b00000000000000000000000000010000 !!
#200
0}
#205
b00000000000000000000000001001000 $
b00000000100100000000000010010011 %
0&
0'
b00000000000000000000000000000000 (
b00000000000000000000000000000000 )
0+
b00000000 ,
b000000 /
b00 0
b00 1
b00001000 9
b0010011 l
b00001 m
b000 n
b00000 o
b01001 p
b0000000 q
b00000000000000000000000000001001 r
b00000000000000000000000000000001 s
b00000000000000000000100000000000 t
b00000000100100000000000000000000 u
b00000000000000000000000000000000 v
b00000000000000000000000000000000 w
b00000000000000000000000001001100 x
b00000000000000000000000000001001 y
1z
0|
1}
b00000000000000000000000000010001 !!
#210
0}
#215
b00000000000000000000000001001100 $
b00000010000101010010100000100011 %
1&
1'
b10000000000000000000000000110000 (
b00000000000000000000000000001001 )
1+
b00110000 ,
b100000 /
b10 0
b10 1
b00000000000000000000000000001001 M
b0100011 l
b10000 m
b010 n
b01010 o
b00001 p
b0000001 q
b00000000000000000000000000100001 r
b00000000000000000000000000110000 s
b00000000000000000000000000110000 t
b00000010000101010010000000000000 u
b10000000000000000000000000000000 v
b00000000000000000000000000001001 w
b00000000000000000000000001010000 x
b00000000000000000000000000000000 y
0z
1|
1}
b00000000000000000000000000010010 !!
#220
0}
#225
b00000000000000000000000001010000 $
b00000000000100000000000010010011 %
0&
0'
b00000000000000000000000000000000 (
b00000000000000000000000000000000 )
0+
b00000000 ,
b000000 /
b00 0
b00 1
b00001001 :
b0010011 l
b00001 m
b000 n
b00000 o
b0000000 q
b00000000000000000000000000000001 r
b00000000000000000000000000000001 s
b00000000000000000000100000000000 t
b00000000000100000000000000000000 u
b00000000000000000000000000000000 v
b00000000000000000000000001010100 x
b00000000000000000000000000000001 y
1z
0|
1}
b00000000000000000000000000010011 !!
#230
0}
#235
b00000000000000000000000001010100 $
b00000100000101010010000000100011 %
1&
1'
b10000000000000000000000001000000 (
b00000000000000000000000000000001 )
1+
b01000000 ,
b00000000000000000000000000000001 M
b0100011 l
b00000 m
b010 n
b01010 o
b0000010 q
b00000000000000000000000001000001 r
b00000000000000000000000001000000 s
b00000000000000000000000001000000 t
b00000100000101010010000000000000 u
b10000000000000000000000000000000 v
b00000000000000000000000000000001 w
b00000000000000000000000001011000 x
b00000000000000000000000000000000 y
0z
1|
1}
b00000000000000000000000000010100 !!
#240
0}
#245
b00000000000000000000000001011000 $
b00000000000000000000000010010011 %
0&
0'
b00000000000000000000000000000000 (
b00000000000000000000000000000000 )
0+
b00000000 ,
b00000001 ;
b00000000000000000000000000000001 D
b0010011 l
b00001 m
b000 n
b00000 o
b00000 p
b0000000 q
b00000000000000000000000000000000 r
b00000000000000000000000000000001 s
b00000000000000000000100000000000 t
b00000000000000000000000000000000 u
b00000000000000000000000000000000 v
b00000000000000000000000000000000 w
b00000000000000000000000001011100 x
1z
0|
1}
b00000000000000000000000000010101 !!
#250
0}
#255
b00000000000000000000000001011100 $
b00000100000101010010001000100011 %
1&
1'
b10000000000000000000000001000100 (
1+
b01000100 ,
b000100 /
b01 1
b00000000000000000000000000000001 E
b00000000000000000000000000000000 M
b0100011 l
b00100 m
b010 n
b01010 o
b00001 p
b0000010 q
b00000000000000000000000001000001 r
b00000000000000000000000001000100 s
b00000000000000000000000001000100 t
b00000100000101010010000000000000 u
b10000000000000000000000000000000 v
b00000000000000000000000001100000 x
0z
1|
1}
b00000000000000000000000000010110 !!
#260
0}
#265
b00000000000000000000000001100000 $
b11111111111100000000000010010011 %
0&
0'
b00000000000000000000000000000000 (
0+
b00000000 ,
b000000 /
b00 1
b0010011 l
b00001 m
b000 n
b00000 o
b11111 p
b1111111 q
b11111111111111111111111111111111 r
b11111111111111111111111111100001 s
b11111111111111111111111111100000 t
b11111111111100000000000000000000 u
b00000000000000000000000000000000 v
b00000000000000000000000001100100 x
b11111111111111111111111111111111 y
1z
0|
1}
b00000000000000000000000000010111 !!
#270
0}
#275
b00000000000000000000000001100100 $
b00000100000101010010010000100011 %
1&
1'
b10000000000000000000000001001000 (
b11111111111111111111111111111111 )
1+
b01001000 ,
b001000 /
b10 1
b11111111111111111111111111111111 M
b0100011 l
b01000 m
b010 n
b01010 o
b00001 p
b0000010 q
b00000000000000000000000001000001 r
b00000000000000000000000001001000 s
b00000000000000000000000001001000 t
b00000100000101010010000000000000 u
b10000000000000000000000000000000 v
b11111111111111111111111111111111 w
b00000000000000000000000001101000 x
b00000000000000000000000000000000 y
0z
1|
1}
b00000000000000000000000000011000 !!
#280
0}
#285
b00000000000000000000000001101000 $
b00000000000100000000000010010011 %
0&
0'
b00000000000000000000000000000000 (
b00000000000000000000000000000000 )
0+
b00000000 ,
b000000 /
b00 1
b11111111 =
b11111111111111111111111111111110 D
b0010011 l
b00001 m
b000 n
b00000 o
b0000000 q
b00000000000000000000000000000001 r
b00000000000000000000000000000001 s
b00000000000000000000100000000000 t
b00000000000100000000000000000000 u
b00000000000000000000000000000000 v
b00000000000000000000000001101100 x
b00000000000000000000000000000001 y
1z
0|
1}
b00000000000000000000000000011001 !!
#290
0}
#295
b00000000000000000000000001101100 $
b00000100000101010010011000100011 %
1&
1'
b10000000000000000000000001001100 (
b00000000000000000000000000000001 )
1+
b01001100 ,
b001100 /
b01 0
b11111111111111111111111111111110 E
b00000000000000000000000000000001 M
b0100011 l
b01100 m
b010 n
b01010 o
b0000010 q
b00000000000000000000000001000001 r
b00000000000000000000000001001100 s
b00000000000000000000000001001100 t
b00000100000101010010000000000000 u
b10000000000000000000000000000000 v
b00000000000000000000000000000001 w
b00000000000000000000000001110000 x
b00000000000000000000000000000000 y
0z
1|
1}
b00000000000000000000000000011010 !!
#300
0}
#305
b00000000000000000000000001110000 $
b00000000000000000000000010010011 %
0&
0'
b00000000000000000000000000000000 (
b00000000000000000000000000000000 )
0+
b00000000 ,
b000000 /
b00 0
b00000001 >
b00000000000000000000000000000010 D
b0010011 l
b00001 m
b000 n
b00000 o
b00000 p
b0000000 q
b00000000000000000000000000000000 r
b00000000000000000000000000000001 s
b00000000000000000000100000000000 t
b00000000000000000000000000000000 u
b00000000000000000000000000000000 v
b00000000000000000000000000000000 w
b00000000000000000000000001110100 x
1z
0|
1}
b00000000000000000000000000011011 !!
#310
0}
#315
b00000000000000000000000001110100 $
b00000100000101010010100000100011 %
1&
1'
b10000000000000000000000001010000 (
1+
b01010000 ,
b010000 /
b01 0
b01 1
b00000000000000000000000000000010 E
b00000000000000000000000000000000 M
b0100011 l
b10000 m
b010 n
b01010 o
b00001 p
b0000010 q
b00000000000000000000000001000001 r
b00000000000000000000000001010000 s
b00000000000000000000000001010000 t
b00000100000101010010000000000000 u
b10000000000000000000000000000000 v
b00000000000000000000000001111000 x
0z
1|
1}
b00000000000000000000000000011100 !!
#320
0}
#325
b00000000000000000000000001111000 $
b11111111111100000000000010010011 %
0&
0'
b00000000000000000000000000000000 (
0+
b00000000 ,
b000000 /
b00 0
b00 1
b0010011 l
b00001 m
b000 n
b00000 o
b11111 p
b1111111 q
b11111111111111111111111111111111 r
b11111111111111111111111111100001 s
b11111111111111111111111111100000 t
b11111111111100000000000000000000 u
b00000000000000000000000000000000 v
b00000000000000000000000001111100 x
b11111111111111111111111111111111 y
1z
0|
1}
b00000000000000000000000000011101 !!
#330
0}
#335
b00000000000000000000000001111100 $
b00000100000101010010101000100011 %
1&
1'
b10000000000000000000000001010100 (
b11111111111111111111111111111111 )
1+
b01010100 ,
b010100 /
b01 0
b10 1
b11111111111111111111111111111111 M
b0100011 l
b10100 m
b010 n
b01010 o
b00001 p
b0000010 q
b00000000000000000000000001000001 r
b00000000000000000000000001010100 s
b00000000000000000000000001010100 t
b00000100000101010010000000000000 u
b10000000000000000000000000000000 v
b11111111111111111111111111111111 w
b00000000000000000000000010000000 x
b00000000000000000000000000000000 y
0z
1|
1}
b00000000000000000000000000011110 !!
#340
0}
#345
b00000000000000000000000010000000 $
b00000000000100000000000010010011 %
0&
0'
b00000000000000000000000000000000 (
b00000000000000000000000000000000 )
0+
b00000000 ,
b000000 /
b00 0
b00 1
b11111111 @
b11111111111111111111111111111100 D
b0010011 l
b00001 m
b000 n
b00000 o
b0000000 q
b00000000000000000000000000000001 r
b00000000000000000000000000000001 s
b00000000000000000000100000000000 t
b00000000000100000000000000000000 u
b00000000000000000000000000000000 v
b00000000000000000000000010000100 x
b00000000000000000000000000000001 y
1z
0|
1}
b00000000000000000000000000011111 !!
#350
0}
#355
b00000000000000000000000010000100 $
b00000100000101010010110000100011 %
1&
1'
b10000000000000000000000001011000 (
b00000000000000000000000000000001 )
1+
b01011000 ,
b011000 /
b10 0
b11111111111111111111111111111100 E
b00000000000000000000000000000001 M
b0100011 l
b11000 m
b010 n
b01010 o
b0000010 q
b00000000000000000000000001000001 r
b00000000000000000000000001011000 s
b00000000000000000000000001011000 t
b00000100000101010010000000000000 u
b10000000000000000000000000000000 v
b00000000000000000000000000000001 w
b00000000000000000000000010001000 x
b00000000000000000000000000000000 y
0z
1|
1}
b00000000000000000000000000100000 !!
#360
0}
#365
b00000000000000000000000010001000 $
b00000000000000000000000010010011 %
0&
0'
b00000000000000000000000000000000 (
b00000000000000000000000000000000 )
0+
b00000000 ,
b000000 /
b00 0
b00000001 A
b00000000000000000000000000000011 D
b0010011 l
b00001 m
b000 n
b00000 o
b00000 p
b0000000 q
b00000000000000000000000000000000 r
b00000000000000000000000000000001 s
b00000000000000000000100000000000 t
b00000000000000000000000000000000 u
b00000000000000000000000000000000 v
b00000000000000000000000000000000 w
b00000000000000000000000010001100 x
1z
0|
1}
b00000000000000000000000000100001 !!
#370
0}
#375
b00000000000000000000000010001100 $
b00000100000101010010111000100011 %
1&
1'
b10000000000000000000000001011100 (
1+
b01011100 ,
b011100 /
b10 0
b01 1
b00000000000000000000000000000011 E
b00000000000000000000000000000000 M
b0100011 l
b11100 m
b010 n
b01010 o
b00001 p
b0000010 q
b00000000000000000000000001000001 r
b00000000000000000000000001011100 s
b00000000000000000000000001011100 t
b00000100000101010010000000000000 u
b10000000000000000000000000000000 v
b00000000000000000000000010010000 x
0z
1|
1}
b00000000000000000000000000100010 !!
#380
0}
#385
b00000000000000000000000010010000 $
b11111111111100000000000010010011 %
0&
0'
b00000000000000000000000000000000 (
0+
b00000000 ,
b000000 /
b00 0
b00 1
b0010011 l
b00001 m
b000 n
b00000 o
b11111 p
b1111111 q
b11111111111111111111111111111111 r
b11111111111111111111111111100001 s
b11111111111111111111111111100000 t
b11111111111100000000000000000000 u
b00000000000000000000000000000000 v
b00000000000000000000000010010100 x
b11111111111111111111111111111111 y
1z
0|
1}
b00000000000000000000000000100011 !!
#390
0}
